{
    "$schema": "http://json-schema.org/draft-07/schema",
    "$id": "http://example.com/example.json",
    "type": "object",
    "title": "The Root Schema",
    "description": "The root schema comprises the entire JSON document.",
    "default": {},
    "additionalProperties": true,
    "required": [
        "name",
        "job",
        "id",
        "createdAt"
    ],
    "properties": {
        "name": {
            "$id": "#/properties/name",
            "type": "string",
            "title": "The Name Schema",
            "description": "An explanation about the purpose of this instance.",
            "default": "",
            "examples": [
                "morpheus"
            ]
        },
        "job": {
            "$id": "#/properties/job",
            "type": "string",
            "title": "The Job Schema",
            "description": "An explanation about the purpose of this instance.",
            "default": "",
            "examples": [
                "leader"
            ]
        },
        "id": {
            "$id": "#/properties/id",
            "type": "string",
            "title": "The Id Schema",
            "description": "An explanation about the purpose of this instance.",
            "default": "",
            "examples": [
                "830"
            ]
        },
        "createdAt": {
            "$id": "#/properties/createdAt",
            "type": "string",
            "title": "The Createdat property",
            "description": "An explanation about the purpose of this instance.",
            "default": "",
            "format":  "date-time",
            "examples": [
                "2020-05-02T15:30:35.062Z"
            ]
        }
    }
}