﻿{
  "bindingCulture": {
    "language": "en-us"
  },
  "language": {
    "feature": "en-us"
  },
  "plugins": [],
  "restEndpoint": "https://reqres.in/api/",
  "websocketEndpoint": "wss://ws.finnhub.io?token=bqn0a77rh5re7283ic20"
}
